[
	{
		"MenuId": -1499998995,
		"MenuCode": null,
		"MenuName": "Item Brand",
		"MenuType": "Reports",
		"MenuNature": 1,
		"MenuParentId": 0,
		"ModuleId": 0,
		"MenuReportId": -1899999026,
		"ReportName": "Item Brand",
		"ReportUri": "NONE",
		"ReportViewType": 0,
		"WebFormId": -1,
		"WebFormName": "NONE",
		"WebFormURL": "NONE",
		"WebFormTemplate": "NULL",
		"WebServiceId": -1899999910,
		"WebServiceName": "POST Criteria/List/?ObjectCode=:ITEMBRAND",
		"WebServiceUriTemplate": "http://169.56.148.10:82/gb4/cs/Criteria.svc/List/?ObjectCode=ITEMBRANDu0026FirstNumber=1u0026MaxResult=10",
		"WebServiceMethodType": 1,
		"MethodType": "POST",
		"BizTransactionClassId": -1,
		"BizTransactionClassCode": null,
		"BizTransactionClassName": null,
		"DefaultReportFormatId": -1499999975,
		"ReportFile": "/reports/Stores/ItemBrandReport",
		"ReportFormatName": "Item Brand",
		"PortletDataSourceFileName": "ItemBrandReport.jasper",
		"DefaultReportFormatRepPath": "D:jasperreportsserverapache-tomcatwebappsjasper-webappreports",
		"HelpUrl": "ItemBrandReportList",
		"GcmTypeId": -1,
		"URIParameterValue": "{FirstNumber}=1,{MaxResult}=10",
		"EntityId": -1899999767,
		"EntityCode": "ITEMBRANDDTO",
		"EntityName": "ItemBrandDTO",
		"EntityPrimeryKeyMemberName": null,
		"DefaultReportViewId": -1399962842,
		"AnalysisQueryId": -1,
		"UserVsMenuId": -1,
		"ReportCriteriaArray": [
			{
				"MenuId": -1499998995,
				"MenuReportId": -1899999026,
				"WebServiceId": -1899999910,
				"WebServiceCriteriaSlNo": 1,
				"WebServiceCriteriaId": -1399999978,
				"WebServiceCriteriaDisplayName": "ItemBrand",
				"WebServiceCriteriaFieldName": "Id",
				"WebServiceCriteriaPicklistFieldName": "Id",
				"WebServiceCriteriaDependPicklistName": "NONE",
				"WebServiceCriteriaDependFieldName": "NONE",
				"WebServiceCriteriaAttributeId": -1899999978,
				"CriteriaAttributeName": "ItemBrand",
				"IsCompulsory": 1,
				"IsHeader": 1,
				"CriteriaAttributeType": 0,
				"CriteriaAttributeTypeName": "PICKLIST",
				"CriteriaAttributePicklistId": -1899999840,
				"CriteriaAttributePicklistCode": "ITMBRDCDPL",
				"CriteriaAttributePicklistDisplayFieldName": "Code,Name",
				"CriteriaAttributePicklistDisplayTextBox": "Code,Name",
				"CriteriaAttributePicklistSelectionFieldName": "Id",
				"CriteriaAttributePicklistURI": "http://169.56.148.10:82/gb4/mms/ItemBrand.svc/SelectList",
				"CriteriaAttributeSearchFields": "Code,Name",
				"CriteriaAttributeApplicableValues": "NULL",
				"CriteriaAttributeVariableField": "NONE",
				"CriteriaAttributeApplicableOperation": "5,6",
				"CriteriaAttributeDefaultOperation": 5,
				"CriteriaAttributeGcmTypeId": -1,
				"CriteriaAttributeContextValueFieldName": "-1500000000",
				"CriteriaAttributePicklistIsMultiSelect": 0
			},
			{
				"MenuId": -1499998995,
				"MenuReportId": -1899999026,
				"WebServiceId": -1899999910,
				"WebServiceCriteriaSlNo": 2,
				"WebServiceCriteriaId": -1399967297,
				"WebServiceCriteriaDisplayName": "IsAsset",
				"WebServiceCriteriaFieldName": "IsAsset",
				"WebServiceCriteriaPicklistFieldName": "NONE",
				"WebServiceCriteriaDependPicklistName": "NONE",
				"WebServiceCriteriaDependFieldName": "NONE",
				"WebServiceCriteriaAttributeId": -1399999363,
				"CriteriaAttributeName": "IsAsset",
				"IsCompulsory": 1,
				"IsHeader": 1,
				"CriteriaAttributeTy  pe": 3,
				"CriteriaAttributeTypeName": "LIST",
				"CriteriaAttributePicklistId": -1,
				"CriteriaAttributePicklistCode": "NONE",
				"CriteriaAttributePicklistDisplayFieldName": "NONE",
				"CriteriaAttributePicklistDisplayTextBox": "NONE",
				"CriteriaAttributePicklistSelectionFieldName": "NONE",
				"CriteriaAttributePicklistURI": "/SelectList/Criteria",
				"CriteriaAttributeSearchFields": "NONE",
				"CriteriaAttributeApplicableValues": "Yes,No",
				"CriteriaAttributeVariableField": "NONE",
				"CriteriaAttributeApplicableOperation": "1,5,6,7,2",
				"CriteriaAttributeDefaultOperation": 5,
				"CriteriaAttributeGcmTypeId": -1,
				"CriteriaAttributeContextValueFieldName": "0",
				"CriteriaAttributePicklistIsMultiSelect": 1
			}
		],
		"ReportVsFieldsArray": [
			{
				"MenuReportId": -1899999026,
				"ReportViewFieldsId": -1399987879,
				"ReportViewId": -1499999222,
				"ReportViewName": "Item Brand",
				"ReportVsFieldsId": -1399987879,
				"ReportVsFieldsSlNo": 1,
				"ReportVsFieldsFieldName": "ItemBrandId",
				"ReportVsFieldsFieldTitle": "ItemBrandId",
				"ReportVsFieldsFieldType": 0,
				"ReportVsFieldsFieldWidth": 0,
				"ReportVsFieldsIsDisplay": 1,
				"ReportVsFieldsIsMergeColumn": 1,
				"ReportVsFieldsIsGroupColumn": 1,
				"ReportVsFieldsIsSubtotalColumn": 1,
				"ReportVsFieldsIsGrandtotalColumn": 1,
				"ReportVsFieldsCalFormat": "0-9",
				"ReportVsFieldsDisplaySlNo": 1,
				"CriteriaAttributeId": -1
			},
			{
				"MenuReportId": -1899999026,
				"ReportViewFieldsId": -1399987879,
				"ReportViewId": -1399963190,
				"ReportViewName": "Brand",
				"ReportVsFieldsId": -1399987879,
				"ReportVsFieldsSlNo": 1,
				"ReportVsFieldsFieldName": "ItemBrandId",
				"ReportVsFieldsFieldTitle": "ItemBrandId",
				"ReportVsFieldsFieldType": 0,
				"ReportVsFieldsFieldWidth": 0,
				"ReportVsFieldsIsDisplay": 1,
				"ReportVsFieldsIsMergeColumn": 1,
				"ReportVsFieldsIsGroupColumn": 1,
				"ReportVsFieldsIsSubtotalColumn": 1,
				"ReportVsFieldsIsGrandtotalColumn": 1,
				"ReportVsFieldsCalFormat": "0-9",
				"ReportVsFieldsDisplaySlNo": 1,
				"CriteriaAttributeId": -1
			},
			{
				"MenuReportId": -1899999026,
				"ReportViewFieldsId": -1399987878,
				"ReportViewId": -1499999222,
				"ReportViewName": "Item Brand",
				"ReportVsFieldsId": -1399987878,
				"ReportVsFieldsSlNo": 2,
				"ReportVsFieldsFieldName": "ItemBrandCode",
				"ReportVsFieldsFieldTitle": "Code",
				"ReportVsFieldsFieldType": 1,
				"ReportVsFieldsFieldWidth": 200,
				"ReportVsFieldsIsDisplay": 0,
				"ReportVsFieldsIsMergeColumn": 1,
				"ReportVsFieldsIsGroupColumn": 1,
				"ReportVsFieldsIsSubtotalColumn": 1,
				"ReportVsFieldsIsGrandtotalColumn": 1,
				"ReportVsFieldsCalFormat": "A-Z",
				"ReportVsFieldsDisplaySlNo": 2,
				"CriteriaAttributeId": -1
			},
			{
				"MenuReportId": -1899999026,
				"ReportViewFieldsId": -1399987878,
				"ReportViewId": -1399963190,
				"ReportViewName": "Brand",
				"ReportVsFieldsId": -1399987878,
				"ReportVsFieldsSlNo": 2,
				"ReportVsFieldsFieldName": "ItemBrandCode",
				"ReportVsFieldsFieldTitle": "Code",
				"ReportVsFieldsFieldType": 1,
				"ReportVsFieldsFieldWidth": 100,
				"ReportVsFieldsIsDisplay": 0,
				"ReportVsFieldsIsMergeColumn": 1,
				"ReportVsFieldsIsGroupColumn": 1,
				"ReportVsFieldsIsSubtotalColumn": 1,
				"ReportVsFieldsIsGrandtotalColumn": 1,
				"ReportVsFieldsCalFormat": "A-Z",
				"ReportVsFieldsDisplaySlNo": 2,
				"CriteriaAttributeId": -1
			},
			{
				"MenuReportId": -1899999026,
				"ReportViewFieldsId": -1399987877,
				"ReportViewId": -1499999222,
				"ReportViewName": "Item Brand",
				"ReportVsFieldsId": -1399987877,
				"ReportVsFieldsSlNo": 3,
				"ReportVsFieldsFieldName": "ItemBrandName",
				"ReportVsFieldsFieldTitle": "Name",
				"ReportVsFieldsFieldType": 1,
				"ReportVsFieldsFieldWidth": 200,
				"ReportVsFieldsIsDisplay": 0,
				"ReportVsFieldsIsMergeColumn": 1,
				"ReportVsFieldsIsGroupColumn": 1,
				"ReportVsFieldsIsSubtotalColumn": 1,
				"ReportVsFieldsIsGrandtotalColumn": 1,
				"ReportVsFieldsCalFormat": "A-Z",
				"ReportVsFieldsDisplaySlNo": 3,
				"CriteriaAttributeId": -1
			},
			{
				"MenuReportId": -1899999026,
				"ReportViewFieldsId": -1399987877,
				"ReportViewId": -1399963190,
				"ReportViewName": "Brand",
				"ReportVsFieldsId": -1399987877,
				"ReportVsFieldsSlNo": 3,
				"ReportVsFieldsFieldName": "ItemBrandName",
				"ReportVsFieldsFieldTitle": "Name",
				"ReportVsFieldsFieldType": 1,
				"ReportVsFieldsFieldWidth": 150,
				"ReportVsFieldsIsDisplay": 0,
				"ReportVsFieldsIsMergeColumn": 1,
				"ReportVsFieldsIsGroupColumn": 1,
				"ReportVsFieldsIsSubtotalColumn": 1,
				"ReportVsFieldsIsGrandtotalColumn": 1,
				"ReportVsFieldsCalFormat": "A-Z",
				"ReportVsFieldsDisplaySlNo": 3,
				"CriteriaAttributeId": -1
			},
			{
				"MenuReportId": -1899999026,
				"ReportViewFieldsId": -1399987876,
				"ReportViewId": -1499999222,
				"ReportViewName": "Item Brand",
				"ReportVsFieldsId": -1399987876,
				"ReportVsFieldsSlNo": 4,
				"ReportVsFieldsFieldName": "ItemBrandIsSelected",
				"ReportVsFieldsFieldTitle": "Is Selected",
				"ReportVsFieldsFieldType": 10,
				"ReportVsFieldsFieldWidth": 100,
				"ReportVsFieldsIsDisplay": 1,
				"ReportVsFieldsIsMergeColumn": 1,
				"ReportVsFieldsIsGroupColumn": 1,
				"ReportVsFieldsIsSubtotalColumn": 1,
				"ReportVsFieldsIsGrandtotalColumn": 1,
				"ReportVsFieldsCalFormat": "0 to 255",
				"ReportVsFieldsDisplaySlNo": 4,
				"CriteriaAttributeId": -1
			},
			{
				"MenuReportId": -1899999026,
				"ReportViewFieldsId": -1399987876,
				"ReportViewId": -1399963190,
				"ReportViewName": "Brand",
				"ReportVsFieldsId": -1399987876,
				"ReportVsFieldsSlNo": 4,
				"ReportVsFieldsFieldName": "ItemBrandIsSelected",
				"ReportVsFieldsFieldTitle": "Is Selected",
				"ReportVsFieldsFieldType": 10,
				"ReportVsFieldsFieldWidth": 100,
				"ReportVsFieldsIsDisplay": 1,
				"ReportVsFieldsIsMergeColumn": 1,
				"ReportVsFieldsIsGroupColumn": 1,
				"ReportVsFieldsIsSubtotalColumn": 1,
				"ReportVsFieldsIsGrandtotalColumn": 1,
				"ReportVsFieldsCalFormat": "0 to 255",
				"ReportVsFieldsDisplaySlNo": 4,
				"CriteriaAttributeId": -1
			},
			{
				"MenuReportId": -1899999026,
				"ReportViewFieldsId": -1399987875,
				"ReportViewId": -1499999222,
				"ReportViewName": "Item Brand",
				"ReportVsFieldsId": -1399987875,
				"ReportVsFieldsSlNo": 5,
				"ReportVsFieldsFieldName": "ItemBrandRemarks",
				"ReportVsFieldsFieldTitle": "Remarks",
				"ReportVsFieldsFieldType": 1,
				"ReportVsFieldsFieldWidth": 200,
				"ReportVsFieldsIsDisplay": 0,
				"ReportVsFieldsIsMergeColumn": 1,
				"ReportVsFieldsIsGroupColumn": 1,
				"ReportVsFieldsIsSubtotalColumn": 1,
				"ReportVsFieldsIsGrandtotalColumn": 1,
				"ReportVsFieldsCalFormat": "A-Z",
				"ReportVsFieldsDisplaySlNo": 5,
				"CriteriaAttributeId": -1
			},
			{
				"MenuReportId": -1899999026,
				"ReportViewFieldsId": -1399987875,
				"ReportViewId": -1399963190,
				"ReportViewName": "Brand",
				"ReportVsFieldsId": -1399987875,
				"ReportVsFieldsSlNo": 5,
				"ReportVsFieldsFieldName": "ItemBrandRemarks",
				"ReportVsFieldsFieldTitle": "Remarks",
				"ReportVsFieldsFieldType": 1,
				"ReportVsFieldsFieldWidth": 200,
				"ReportVsFieldsIsDisplay": 0,
				"ReportVsFieldsIsMergeColumn": 1,
				"ReportVsFieldsIsGroupColumn": 1,
				"ReportVsFieldsIsSubtotalColumn": 1,
				"ReportVsFieldsIsGrandtotalColumn": 1,
				"ReportVsFieldsCalFormat": "A-Z",
				"ReportVsFieldsDisplaySlNo": 5,
				"CriteriaAttributeId": -1
			},
			{
				"MenuReportId": -1899999026,
				"ReportViewFieldsId": -1399987874,
				"ReportViewId": -1499999222,
				"ReportViewName": "Item Brand",
				"ReportVsFieldsId": -1399987874,
				"ReportVsFieldsSlNo": 6,
				"ReportVsFieldsFieldName": "ItemBrandCreatedById",
				"ReportVsFieldsFieldTitle": "ItemBrandCreatedById",
				"ReportVsFieldsFieldType": 0,
				"ReportVsFieldsFieldWidth": 0,
				"ReportVsFieldsIsDisplay": 1,
				"ReportVsFieldsIsMergeColumn": 1,
				"ReportVsFieldsIsGroupColumn": 1,
				"ReportVsFieldsIsSubtotalColumn": 1,
				"ReportVsFieldsIsGrandtotalColumn": 1,
				"ReportVsFieldsCalFormat": "0-9",
				"ReportVsFieldsDisplaySlNo": 6,
				"CriteriaAttributeId": -1
			},
			{
				"MenuReportId": -1899999026,
				"ReportViewFieldsId": -1399987874,
				"ReportViewId": -1399963190,
				"ReportViewName": "Brand",
				"ReportVsFieldsId": -1399987874,
				"ReportVsFieldsSlNo": 6,
				"ReportVsFieldsFieldName": "ItemBrandCreatedById",
				"ReportVsFieldsFieldTitle": "ItemBrandCreatedById",
				"ReportVsFieldsFieldType": 0,
				"ReportVsFieldsFieldWidth": 0,
				"ReportVsFieldsIsDisplay": 1,
				"ReportVsFieldsIsMergeColumn": 1,
				"ReportVsFieldsIsGroupColumn": 1,
				"ReportVsFieldsIsSubtotalColumn": 1,
				"ReportVsFieldsIsGrandtotalColumn": 1,
				"ReportVsFieldsCalFormat": "0-9",
				"ReportVsFieldsDisplaySlNo": 6,
				"CriteriaAttributeId": -1
			},
			{
				"MenuReportId": -1899999026,
				"ReportViewFieldsId": -1399987873,
				"ReportViewId": -1499999222,
				"ReportViewName": "Item Brand",
				"ReportVsFieldsId": -1399987873,
				"ReportVsFieldsSlNo": 7,
				"ReportVsFieldsFieldName": "ItemBrandCreatedOn",
				"ReportVsFieldsFieldTitle": "ItemBrandCreatedOn",
				"ReportVsFieldsFieldType": 3,
				"ReportVsFieldsFieldWidth": 100,
				"ReportVsFieldsIsDisplay": 1,
				"ReportVsFieldsIsMergeColumn": 1,
				"ReportVsFieldsIsGroupColumn": 1,
				"ReportVsFieldsIsSubtotalColumn": 1,
				"ReportVsFieldsIsGrandtotalColumn": 1,
				"ReportVsFieldsCalFormat": "dd/mmm/yyyy HH:MM:ss",
				"ReportVsFieldsDisplaySlNo": 7,
				"CriteriaAttributeId": -1
			},
			{
				"MenuReportId": -1899999026,
				"ReportViewFieldsId": -1399987873,
				"ReportViewId": -1399963190,
				"ReportViewName": "Brand",
				"ReportVsFieldsId": -1399987873,
				"ReportVsFieldsSlNo": 7,
				"ReportVsFieldsFieldName": "ItemBrandCreatedOn",
				"ReportVsFieldsFieldTitle": "ItemBrandCreatedOn",
				"ReportVsFieldsFieldType": 3,
				"ReportVsFieldsFieldWidth": 100,
				"ReportVsFieldsIsDisplay": 1,
				"ReportVsFieldsIsMergeColumn": 1,
				"ReportVsFieldsIsGroupColumn": 1,
				"ReportVsFieldsIsSubtotalColumn": 1,
				"ReportVsFieldsIsGrandtotalColumn": 1,
				"ReportVsFieldsCalFormat": "dd/mmm/yyyy HH:MM:ss",
				"ReportVsFieldsDisplaySlNo": 7,
				"CriteriaAttributeId": -1
			},
			{
				"MenuReportId": -1899999026,
				"ReportViewFieldsId": -1399987872,
				"ReportViewId": -1499999222,
				"ReportViewName": "Item Brand",
				"ReportVsFieldsId": -1399987872,
				"ReportVsFieldsSlNo": 8,
				"ReportVsFieldsFieldName": "ItemBrandModifiedById",
				"ReportVsFieldsFieldTitle": "ItemBrandModifiedById",
				"ReportVsFieldsFieldType": 0,
				"ReportVsFieldsFieldWidth": 0,
				"ReportVsFieldsIsDisplay": 1,
				"ReportVsFieldsIsMergeColumn": 1,
				"ReportVsFieldsIsGroupColumn": 1,
				"ReportVsFieldsIsSubtotalColumn": 1,
				"ReportVsFieldsIsGrandtotalColumn": 1,
				"ReportVsFieldsCalFormat": "0-9",
				"ReportVsFieldsDisplaySlNo": 8,
				"CriteriaAttributeId": -1
			},
			{
				"MenuReportId": -1899999026,
				"ReportViewFieldsId": -1399987872,
				"ReportViewId": -1399963190,
				"ReportViewName": "Brand",
				"ReportVsFieldsId": -1399987872,
				"ReportVsFieldsSlNo": 8,
				"ReportVsFieldsFieldName": "ItemBrandModifiedById",
				"ReportVsFieldsFieldTitle": "ItemBrandModifiedById",
				"ReportVsFieldsFieldType": 0,
				"ReportVsFieldsFieldWidth": 0,
				"ReportVsFieldsIsDisplay": 1,
				"ReportVsFieldsIsMergeColumn": 1,
				"ReportVsFieldsIsGroupColumn": 1,
				"ReportVsFieldsIsSubtotalColumn": 1,
				"ReportVsFieldsIsGrandtotalColumn": 1,
				"ReportVsFieldsCalFormat": "0-9",
				"ReportVsFieldsDisplaySlNo": 8,
				"CriteriaAttributeId": -1
			},
			{
				"MenuReportId": -1899999026,
				"ReportViewFieldsId": -1399987871,
				"ReportViewId": -1499999222,
				"ReportViewName": "Item Brand",
				"ReportVsFieldsId": -1399987871,
				"ReportVsFieldsSlNo": 9,
				"ReportVsFieldsFieldName": "ItemBrandModifiedOn",
				"ReportVsFieldsFieldTitle": "ItemBrandModifiedOn",
				"ReportVsFieldsFieldType": 3,
				"ReportVsFieldsFieldWidth": 100,
				"ReportVsFieldsIsDisplay": 1,
				"ReportVsFieldsIsMergeColumn": 1,
				"ReportVsFieldsIsGroupColumn": 1,
				"ReportVsFieldsIsSubtotalColumn": 1,
				"ReportVsFieldsIsGrandtotalColumn": 1,
				"ReportVsFieldsCalFormat": "dd/mmm/yyyy HH:MM:ss",
				"ReportVsFieldsDisplaySlNo": 9,
				"CriteriaAttributeId": -1
			},
			{
				"MenuReportId": -1899999026,
				"ReportViewFieldsId": -1399987871,
				"ReportViewId": -1399963190,
				"ReportViewName": "Brand",
				"ReportVsFieldsId": -1399987871,
				"ReportVsFieldsSlNo": 9,
				"ReportVsFieldsFieldName": "ItemBrandModifiedOn",
				"ReportVsFieldsFieldTitle": "ItemBrandModifiedOn",
				"ReportVsFieldsFieldType": 3,
				"ReportVsFieldsFieldWidth": 100,
				"ReportVsFieldsIsDisplay": 1,
				"ReportVsFieldsIsMergeColumn": 1,
				"ReportVsFieldsIsGroupColumn": 1,
				"ReportVsFieldsIsSubtotalColumn": 1,
				"ReportVsFieldsIsGrandtotalColumn": 1,
				"ReportVsFieldsCalFormat": "dd/mmm/yyyy HH:MM:ss",
				"ReportVsFieldsDisplaySlNo": 9,
				"CriteriaAttributeId": -1
			},
			{
				"MenuReportId": -1899999026,
				"ReportViewFieldsId": -1399987870,
				"ReportViewId": -1499999222,
				"ReportViewName": "Item Brand",
				"ReportVsFieldsId": -1399987870,
				"ReportVsFieldsSlNo": 10,
				"ReportVsFieldsFieldName": "ItemBrandSortOrder",
				"ReportVsFieldsFieldTitle": "ItemBrandSortOrder",
				"ReportVsFieldsFieldType": 9,
				"ReportVsFieldsFieldWidth": 100,
				"ReportVsFieldsIsDisplay": 1,
				"ReportVsFieldsIsMergeColumn": 1,
				"ReportVsFieldsIsGroupColumn": 1,
				"ReportVsFieldsIsSubtotalColumn": 1,
				"ReportVsFieldsIsGrandtotalColumn": 1,
				"ReportVsFieldsCalFormat": "9999",
				"ReportVsFieldsDisplaySlNo": 10,
				"CriteriaAttributeId": -1
			},
			{
				"MenuReportId": -1899999026,
				"ReportViewFieldsId": -1399987870,
				"ReportViewId": -1399963190,
				"ReportViewName": "Brand",
				"ReportVsFieldsId": -1399987870,
				"ReportVsFieldsSlNo": 10,
				"ReportVsFieldsFieldName": "ItemBrandSortOrder",
				"ReportVsFieldsFieldTitle": "ItemBrandSortOrder",
				"ReportVsFieldsFieldType": 9,
				"ReportVsFieldsFieldWidth": 100,
				"ReportVsFieldsIsDisplay": 1,
				"ReportVsFieldsIsMergeColumn": 1,
				"ReportVsFieldsIsGroupColumn": 1,
				"ReportVsFieldsIsSubtotalColumn": 1,
				"ReportVsFieldsIsGrandtotalColumn": 1,
				"ReportVsFieldsCalFormat": "9999",
				"ReportVsFieldsDisplaySlNo": 10,
				"CriteriaAttributeId": -1
			},
			{
				"MenuReportId": -1899999026,
				"ReportViewFieldsId": -1399987869,
				"ReportViewId": -1499999222,
				"ReportViewName": "Item Brand",
				"ReportVsFieldsId": -1399987869,
				"ReportVsFieldsSlNo": 11,
				"ReportVsFieldsFieldName": "ItemBrandStatus",
				"ReportVsFieldsFieldTitle": "ItemBrandStatus",
				"ReportVsFieldsFieldType": 10,
				"ReportVsFieldsFieldWidth": 100,
				"ReportVsFieldsIsDisplay": 1,
				"ReportVsFieldsIsMergeColumn": 1,
				"ReportVsFieldsIsGroupColumn": 1,
				"ReportVsFieldsIsSubtotalColumn": 1,
				"ReportVsFieldsIsGrandtotalColumn": 1,
				"ReportVsFieldsCalFormat": "0 to 255",
				"ReportVsFieldsDisplaySlNo": 11,
				"CriteriaAttributeId": -1
			},
			{
				"MenuReportId": -1899999026,
				"ReportViewFieldsId": -1399987869,
				"ReportViewId": -1399963190,
				"ReportViewName": "Brand",
				"ReportVsFieldsId": -1399987869,
				"ReportVsFieldsSlNo": 11,
				"ReportVsFieldsFieldName": "ItemBrandStatus",
				"ReportVsFieldsFieldTitle": "ItemBrandStatus",
				"ReportVsFieldsFieldType": 10,
				"ReportVsFieldsFieldWidth": 100,
				"ReportVsFieldsIsDisplay": 1,
				"ReportVsFieldsIsMergeColumn": 1,
				"ReportVsFieldsIsGroupColumn": 1,
				"ReportVsFieldsIsSubtotalColumn": 1,
				"ReportVsFieldsIsGrandtotalColumn": 1,
				"ReportVsFieldsCalFormat": "0 to 255",
				"ReportVsFieldsDisplaySlNo": 11,
				"CriteriaAttributeId": -1
			},
			{
				"MenuReportId": -1899999026,
				"ReportViewFieldsId": -1399987868,
				"ReportViewId": -1499999222,
				"ReportViewName": "Item Brand",
				"ReportVsFieldsId": -1399987868,
				"ReportVsFieldsSlNo": 12,
				"ReportVsFieldsFieldName": "ItemBrandVersion",
				"ReportVsFieldsFieldTitle": "ItemBrandVersion",
				"ReportVsFieldsFieldType": 9,
				"ReportVsFieldsFieldWidth": 100,
				"ReportVsFieldsIsDisplay": 1,
				"ReportVsFieldsIsMergeColumn": 1,
				"ReportVsFieldsIsGroupColumn": 1,
				"ReportVsFieldsIsSubtotalColumn": 1,
				"ReportVsFieldsIsGrandtotalColumn": 1,
				"ReportVsFieldsCalFormat": "9999",
				"ReportVsFieldsDisplaySlNo": 12,
				"CriteriaAttributeId": -1
			},
			{
				"MenuReportId": -1899999026,
				"ReportViewFieldsId": -1399987868,
				"ReportViewId": -1399963190,
				"ReportViewName": "Brand",
				"ReportVsFieldsId": -1399987868,
				"ReportVsFieldsSlNo": 12,
				"ReportVsFieldsFieldName": "ItemBrandVersion",
				"ReportVsFieldsFieldTitle": "ItemBrandVersion",
				"ReportVsFieldsFieldType": 9,
				"ReportVsFieldsFieldWidth": 100,
				"ReportVsFieldsIsDisplay": 1,
				"ReportVsFieldsIsMergeColumn": 1,
				"ReportVsFieldsIsGroupColumn": 1,
				"ReportVsFieldsIsSubtotalColumn": 1,
				"ReportVsFieldsIsGrandtotalColumn": 1,
				"ReportVsFieldsCalFormat": "9999",
				"ReportVsFieldsDisplaySlNo": 12,
				"CriteriaAttributeId": -1
			},
			{
				"MenuReportId": -1899999026,
				"ReportViewFieldsId": -1399987867,
				"ReportViewId": -1499999222,
				"ReportViewName": "Item Brand",
				"ReportVsFieldsId": -1399987867,
				"ReportVsFieldsSlNo": 13,
				"ReportVsFieldsFieldName": "ItemBrandScreenOperationMode",
				"ReportVsFieldsFieldTitle": "ItemBrandScreenOperationMode",
				"ReportVsFieldsFieldType": 0,
				"ReportVsFieldsFieldWidth": 0,
				"ReportVsFieldsIsDisplay": 1,
				"ReportVsFieldsIsMergeColumn": 1,
				"ReportVsFieldsIsGroupColumn": 1,
				"ReportVsFieldsIsSubtotalColumn": 1,
				"ReportVsFieldsIsGrandtotalColumn": 1,
				"ReportVsFieldsCalFormat": "0-9",
				"ReportVsFieldsDisplaySlNo": 13,
				"CriteriaAttributeId": -1
			},
			{
				"MenuReportId": -1899999026,
				"ReportViewFieldsId": -1399987867,
				"ReportViewId": -1399963190,
				"ReportViewName": "Brand",
				"ReportVsFieldsId": -1399987867,
				"ReportVsFieldsSlNo": 13,
				"ReportVsFieldsFieldName": "ItemBrandScreenOperationMode",
				"ReportVsFieldsFieldTitle": "ItemBrandScreenOperationMode",
				"ReportVsFieldsFieldType": 0,
				"ReportVsFieldsFieldWidth": 0,
				"ReportVsFieldsIsDisplay": 1,
				"ReportVsFieldsIsMergeColumn": 1,
				"ReportVsFieldsIsGroupColumn": 1,
				"ReportVsFieldsIsSubtotalColumn": 1,
				"ReportVsFieldsIsGrandtotalColumn": 1,
				"ReportVsFieldsCalFormat": "0-9",
				"ReportVsFieldsDisplaySlNo": 13,
				"CriteriaAttributeId": -1
			}
		],
		"CriteriaConfigArray": [],
		"ReportVsFormatsArray": [
			{
				"MenuReportId": -1899999026,
				"ReportVsForamtsId": -1799999975,
				"ReportVsForamtsSlNo": 1,
				"ReportFormatId": -1499999975,
				"ReportFile": "/reports/Stores/ItemBrandReport",
				"ReportFormatName": "Item Brand",
				"ReportFormatDataSourceFileName": "ItemBrandReport.jasper",
				"ReportFormatPurpose": "Report get the List of Item Brand",
				"ReportFormatRepPath": "D:jasperreportsserverapache-tomcatwebappsjasper-webappreports",
				"ReportFormatRemarks": "NONE",
				"ReportVsForamtsIsVisible": 0
			}
		],
		"WebServiceSettingArray": [
			{
				"WebServiceSettingId": -1499872508,
				"WebServiceId": -1899999910,
				"WebServiceName": "POST Criteria/List/?ObjectCode=:ITEMBRAND",
				"WebServiceSettingSettingType": 1,
				"ReportId": -1899999026,
				"ReportName": "Item Brand",
				"MenuId": -1499998995,
				"MenuCode": "ST20006",
				"MenuName": "Item Brand",
				"WebServiceSettingCreatedById": 0,
				"WebServiceSettingCreatedByName": null,
				"WebServiceSettingCreatedOn": "/Date(-62135596800000)/",
				"WebServiceSettingModifiedById": 0,
				"WebServiceSettingModifiedByName": null,
				"WebServiceSettingModifiedOn": "/Date(-62135596800000)/",
				"WebServiceSettingDetailArray": [
					{
						"WebServiceSettingDetailId": -1499860996,
						"ServiceSettingId": 0,
						"WebServiceSettingDetailSlno": 1,
						"CriteriaAttributeId": -1399999363,
						"CriteriaAttributeName": "IsAsset",
						"CriteriaAttributeType": 3,
						"CriteriaAttributeContextValueFieldName": "0",
						"WebServiceSettingDetailIsCompulsory": 1,
						"WebServiceSettingDetailIsHeader": 1,
						"WebServiceSettingDetailIsVisible": 1,
						"WebServiceSettingDetailIsChangeable": 1,
						"WebServiceSettingDetailOperationType": 1,
						"WebServiceSettingDetailCriteriaFieldValue": "NONE",
						"WebServiceSettingDetailDisplayName": "IsAsset",
						"WebServiceSettingDetailCriteriaJoin": 0,
						"WebServiceCriteriaId": -1399967297,
						"WebServiceCriteriaFieldName": "IsAsset"
					},
					{
						"WebServiceSettingDetailId": -1499860995,
						"ServiceSettingId": 0,
						"WebServiceSettingDetailSlno": 2,
						"CriteriaAttributeId": -1899999978,
						"CriteriaAttributeName": "ItemBrand",
						"CriteriaAttributeType": 0,
						"CriteriaAttributeContextValueFieldName": "-1500000000",
						"WebServiceSettingDetailIsCompulsory": 1,
						"WebServiceSettingDetailIsHeader": 1,
						"WebServiceSettingDetailIsVisible": 0,
						"WebServiceSettingDetailIsChangeable": 1,
						"WebServiceSettingDetailOperationType": 1,
						"WebServiceSettingDetailCriteriaFieldValue": "NONE",
						"WebServiceSettingDetailDisplayName": "ItemBrand",
						"WebServiceSettingDetailCriteriaJoin": 0,
						"WebServiceCriteriaId": -1399999978,
						"WebServiceCriteriaFieldName": "Id"
					}
				],
				"WebServiceSettingSortOrder": 0,
				"WebServiceSettingStatus": 0,
				"WebServiceSettingVersion": 0,
				"WebServiceSettingSourceType": 0
			}
		],
		"ReportVsViewsArray": [
			{
				"MenuReportId": -1899999026,
				"ReportViewId": -1499999222,
				"ReportViewName": "Item Brand",
				"ReportId": -1899999026,
				"ReportName": "Item Brand",
				"IsSystemView": 1,
				"IsDefaultView": 1,
				"ReportViewType": 0,
				"SourceType": 2,
				"TemplateId": -1,
				"TemplateName": "None",
				"TemplateLocation": "",
				"TemplatesecondLocation":"",
				"ColumnFreeze": 0,
				"PivotFormat": "",
				"PageId": -1,
				"IsDataPivot": 1,
				"PageCode": "NONE",
				"PageName": "NONE",
				"PageLayout": "60,40",
				"PagePortletArray": []
			},
			{
				"MenuReportId": -1899999026,
				"ReportViewId": -1399963220,
				"ReportViewName": "Brand View",
				"ReportId": -1899999026,
				"ReportName": "Item Brand",
				"IsSystemView": 1,
				"IsDefaultView": 1,
				"ReportViewType": 3,
				"SourceType": 2,
				"TemplateId": -1499999719,
				"TemplateName": "Brand.js",
				"TemplateLocation": "apps/Report/FAM/Checklist/Brand.js",
				"TemplatesecondLocation":"inventory/brand/list",
				"ColumnFreeze": 0,
				"PivotFormat": "",
				"PageId": -1,
				"IsDataPivot": 1,
				"PageCode": "NONE",
				"PageName": "NONE",
				"PageLayout": "60,40",
				"PagePortletArray": []
			},
			{
				"MenuReportId": -1899999026,
				"ReportViewId": -1399963190,
				"ReportViewName": "Brand",
				"ReportId": -1899999026,
				"ReportName": "Item Brand",
				"IsSystemView": 1,
				"IsDefaultView": 1,
				"ReportViewType": 0,
				"SourceType": 2,
				"TemplateId": -1,
				"TemplateName": "None",
				"TemplateLocation": "",
				"TemplatesecondLocation":"",
				"ColumnFreeze": 0,
				"PivotFormat": "",
				"PageId": -1,
				"IsDataPivot": 1,
				"PageCode": "NONE",
				"PageName": "NONE",
				"PageLayout": "60,40",
				"PagePortletArray": []
			},
			{
				"MenuReportId": -1899999026,
				"ReportViewId": -1399962842,
				"ReportViewName": "Item Brand View",
				"ReportId": -1899999026,
				"ReportName": "Item Brand",
				"IsSystemView": 1,
				"IsDefaultView": 1,
				"ReportViewType": 3,
				"SourceType": 2,
				"TemplateId": -1499999522,
				"TemplateName": "ItemBrand.js",
				"TemplateLocation": "apps/Report/Stores/CheckList/ItemBrand.js",
				"TemplatesecondLocation":"inventory/brand/list",
				"ColumnFreeze": 0,
				"PivotFormat": "",
				"PageId": -1,
				"IsDataPivot": 1,
				"PageCode": "NONE",
				"PageName": "NONE",
				"PageLayout": "60,40",
				"PagePortletArray": []
			}
		]
	}
]