

{
  "/prox/*": {
    "target": "http://183.82.250.223:98/gb4",
    "pathRewrite": {"^/prox" : ""},
    "secure": false,
    "changeOrigin": true,
    "logLevel":"debug"
  },
  "/versionapi/*": {
    "target": "http://183.82.250.223:98/vs",
    "pathRewrite": {"^/versionapi" : ""},
    "secure": false,
    "changeOrigin": true,
    "logLevel":"debug"
  },
  "/devproxy/*": {
    "target": "http://183.82.250.223:92/4.5/",
    "pathRewrite": {"^/devproxy" : ""},
    "secure": false,
    "changeOrigin": true,
    "logLevel":"debug"
  }

}
