[
    {
      "headerName": "Code",
      "field": "AccountCode"
    },
    {
      "headerName": "Name",
      "field": "AccountName"
    },
    {
      "headerName": "Group Code",
      "field": "AccountGroupCode"
    },
    {
      "headerName": "Group Name",
      "field": "AccountGroupName"
    },
    {
      "headerName": "Parent Code",
      "field": "ParentCode"
    },
    {
      "headerName": "Parent Name",
      "field": "ParentName"
    },
    {
      "headerName": "Type",
      "field": "AccountTypeName"
    },
    {
      "headerName": "Currency",
      "field": "CurrencyName"
    }
    
]