[
    {
      "headerName": "Code",
      "field": "Code",
      "sortable": true,
      "filter": "agTextColumnFilter",
      "checkboxSelection": true,
      "resizable": true,
      "editable": true,
      "pinned": "left",
      "flex": 1,
      "minWidth": 50,
      "enableRowGroup": true,
      "enablePivot": true,
      "enableValue": true,
      "paginationAutoPageSize": true,
      "pagination": true,
      "routingpath": "..",
      "routingparams": "Id"
    },
    {
      "headerName": "Name",
      "field": "Name",
      "sortable": true,
      "filter": "agTextColumnFilter",
      "resizable": true,
      "editable": true,
      "routingpath": "..",
      "routingparams": "Id"
    }
  ]