{
    "ID": "SC0019",
    "Name": "Lot Type",
    "ObjectFields": [
      {
        "Name": "LotTypeId",
        "Type": "string",
        "Label": "ID",
        "Tooltip": "",
        "Placeholder": "",
        "Required": true,
        "DefaultValue":0
      },
      {
        "Name": "LotTypeVersion",
        "Type": "string",
        "ValidRegEx": "",
        "DefaultValue": 1
      },
      {
        "Name": "LotTypeStatus",
        "Type": "string",
        "ValidRegEx": "",
        "DefaultValue": 1
      },
      {
        "Name": "LotTypeName",
        "Type": "string",
        "Label": "Name",
        "Tooltip": "",
        "Placeholder": "",
        "maxlength":"4",
        "Required": false,
        "DefaultValue":"",
        "ValidRegEx": "",
        "PickLists": [
          "Test1",
          "Test2",
          "Test3"
        ]
      },
      {
        "Name": "LotTypeType",
        "Type": "string",
        "Label": "Lot Type",
        "Tooltip": "",
        "Placeholder": "",
        "Required": false,
        "DefaultValue":"",
        "ValidRegEx": "",
        "PickLists": [
          "Test1",
          "Test2",
          "Test3"
        ]
      },
      {
        "Name": "LotTypeLotNumberingType",
        "Type": "string",
        "Label": "Lot Numbering Type",
        "Tooltip": "",
        "Placeholder": "",
        "Required": false,
        "DefaultValue":"",
        "ValidRegEx": "",
        "PickLists": [
          "Test1",
          "Test2",
          "Test3"
        ]
      },
      {
        "Name": "ProcessId",
        "Type": "string",
        "Label": "Process",
        "Tooltip": "",
        "Placeholder": "",
        "DefaultValue":"",
        "maxlength":"4",
        "Required": false,
        "ValidRegEx": "",
        "PickLists": [
          "Test1",
          "Test2",
          "Test3"
        ]
      },
      {
        "Name": "ItemId",
        "Type": "string",
        "Label": "Item Id",
        "Tooltip": "",
        "Placeholder": "",
        "Required": false,
        "DefaultValue":"",
        "ValidRegEx": "",
        "PickLists": [
          "Test1",
          "Test2",
          "Test3"
        ]
      },
      {
        "Name": "ItemName",
        "Type": "string",
        "Label": "Item Name",
        "Tooltip": "",
        "Placeholder": "",
        "Required": false,
        "DefaultValue":"",
        "ValidRegEx": "",
        "PickLists": [
          "Test1",
          "Test2",
          "Test3"
        ]
      },
      {
        "Name": "SKUId",
        "Type": "string",
        "Label": "SKU Id",
        "Tooltip": "",
        "Placeholder": "",
        "Required": true,
        "DefaultValue":0
      },
      {
        "Name": "SKUName",
        "Type": "string",
        "Label": "SKU Name",
        "Tooltip": "",
        "Placeholder": "",
        "maxlength":"4",
        "Required": false,
        "DefaultValue":"",
        "ValidRegEx": "",
        "PickLists": [
          "Test1",
          "Test2",
          "Test3"
        ]
      },
      {
        "Name": "LotTypeLotNumberSize",
        "Type": "string",
        "Label": "Lot Number Size",
        "Tooltip": "",
        "Placeholder": "",
        "Required": false,
        "DefaultValue":"",
        "ValidRegEx": "",
        "PickLists": [
          "Test1",
          "Test2",
          "Test3"
        ]
      },
      {
        "Name": "LotTypePrefix",
        "Type": "string",
        "Label": "Prefix",
        "Tooltip": "",
        "Placeholder": "",
        "Required": false,
        "DefaultValue":"",
        "ValidRegEx": "",
        "PickLists": [
          "Test1",
          "Test2",
          "Test3"
        ]
      },
      {
        "Name": "LotTypeSuffix",
        "Type": "string",
        "Label": "Suffix",
        "Tooltip": "",
        "Placeholder": "",
        "DefaultValue":"",
        "maxlength":"4",
        "Required": false,
        "ValidRegEx": "",
        "PickLists": [
          "Test1",
          "Test2",
          "Test3"
        ]
      },
      {
        "Name": "LotTypeFromNumber",
        "Type": "string",
        "Label": "From Number",
        "Tooltip": "",
        "Placeholder": "",
        "Required": false,
        "DefaultValue":"",
        "ValidRegEx": "",
        "PickLists": [
          "Test1",
          "Test2",
          "Test3"
        ]
      },
      {
        "Name": "LotTypeRemarks",
        "Type": "string",
        "Label": "Remarks",
        "Tooltip": "",
        "Placeholder": "",
        "Required": false,
        "DefaultValue":"",
        "ValidRegEx": "",
        "PickLists": [
          "Test1",
          "Test2",
          "Test3"
        ]
      }
    ]
  }